tb_add.vcd
$date
	Tue Aug 27 10:01:43 2019
$end
$version
	Icarus Verilog
$end
$timescale
	100ps
$end
$scope module tb $end
$var wire 1 ! cout $end
$var wire 4 " o [3:0] $end
$var reg 1 # cin $end
$var reg 1 $ clk $end
$var integer 32 % i [31:0] $end
$var reg 4 & i0 [3:0] $end
$var reg 4 ' i1 [3:0] $end
$var reg 1 ( reset $end
$scope module u0 $end
$var wire 4 ) A [3:0] $end
$var wire 4 * B [3:0] $end
$var wire 1 + Cin $end
$var wire 1 ! Cout $end
$var wire 4 , Sum [3:0] $end
$var wire 3 - transferC [2:0] $end
$scope module g1 $end
$var wire 1 . a $end
$var wire 1 / b $end
$var wire 1 + c $end
$var wire 1 0 fcarry_out $end
$var wire 1 1 fsum $end
$var wire 1 2 half_carry_1 $end
$var wire 1 3 half_carry_2 $end
$var wire 1 4 half_sum_1 $end
$scope module g1 $end
$var wire 1 . a $end
$var wire 1 / b $end
$var wire 1 2 carry $end
$var wire 1 4 sum $end
$scope module g1 $end
$var wire 1 . i0 $end
$var wire 1 / i1 $end
$var wire 1 4 o $end
$upscope $end
$upscope $end
$scope module g2 $end
$var wire 1 4 a $end
$var wire 1 + b $end
$var wire 1 3 carry $end
$var wire 1 1 sum $end
$scope module g1 $end
$var wire 1 4 i0 $end
$var wire 1 + i1 $end
$var wire 1 1 o $end
$upscope $end
$upscope $end
$upscope $end
$scope module g2 $end
$var wire 1 5 a $end
$var wire 1 6 b $end
$var wire 1 7 c $end
$var wire 1 8 fcarry_out $end
$var wire 1 9 fsum $end
$var wire 1 : half_carry_1 $end
$var wire 1 ; half_carry_2 $end
$var wire 1 < half_sum_1 $end
$scope module g1 $end
$var wire 1 5 a $end
$var wire 1 6 b $end
$var wire 1 : carry $end
$var wire 1 < sum $end
$scope module g1 $end
$var wire 1 5 i0 $end
$var wire 1 6 i1 $end
$var wire 1 < o $end
$upscope $end
$upscope $end
$scope module g2 $end
$var wire 1 < a $end
$var wire 1 7 b $end
$var wire 1 ; carry $end
$var wire 1 9 sum $end
$scope module g1 $end
$var wire 1 < i0 $end
$var wire 1 7 i1 $end
$var wire 1 9 o $end
$upscope $end
$upscope $end
$upscope $end
$scope module g3 $end
$var wire 1 = a $end
$var wire 1 > b $end
$var wire 1 ? c $end
$var wire 1 @ fcarry_out $end
$var wire 1 A fsum $end
$var wire 1 B half_carry_1 $end
$var wire 1 C half_carry_2 $end
$var wire 1 D half_sum_1 $end
$scope module g1 $end
$var wire 1 = a $end
$var wire 1 > b $end
$var wire 1 B carry $end
$var wire 1 D sum $end
$scope module g1 $end
$var wire 1 = i0 $end
$var wire 1 > i1 $end
$var wire 1 D o $end
$upscope $end
$upscope $end
$scope module g2 $end
$var wire 1 D a $end
$var wire 1 ? b $end
$var wire 1 C carry $end
$var wire 1 A sum $end
$scope module g1 $end
$var wire 1 D i0 $end
$var wire 1 ? i1 $end
$var wire 1 A o $end
$upscope $end
$upscope $end
$upscope $end
$scope module g4 $end
$var wire 1 E a $end
$var wire 1 F b $end
$var wire 1 G c $end
$var wire 1 ! fcarry_out $end
$var wire 1 H fsum $end
$var wire 1 I half_carry_1 $end
$var wire 1 J half_carry_2 $end
$var wire 1 K half_sum_1 $end
$scope module g1 $end
$var wire 1 E a $end
$var wire 1 F b $end
$var wire 1 I carry $end
$var wire 1 K sum $end
$scope module g1 $end
$var wire 1 E i0 $end
$var wire 1 F i1 $end
$var wire 1 K o $end
$upscope $end
$upscope $end
$scope module g2 $end
$var wire 1 K a $end
$var wire 1 G b $end
$var wire 1 J carry $end
$var wire 1 H sum $end
$scope module g1 $end
$var wire 1 K i0 $end
$var wire 1 G i1 $end
$var wire 1 H o $end
$upscope $end
$upscope $end
$upscope $end
$upscope $end
$upscope $end
$enddefinitions $end
#0
$dumpvars
0K
0J
0I
0H
0G
0F
0E
0D
0C
0B
0A
0@
0?
0>
0=
0<
0;
0:
09
08
07
06
05
04
03
02
01
00
0/
0.
b0 -
b0 ,
0+
b0 *
b0 )
1(
b0 '
b0 &
bx %
0$
0#
b0 "
0!
$end
#50
1$
#60
b0 %
#100
0$
#125
0(
#150
1$
#160
11
b1 "
b1 ,
14
1/
b1 %
b1 '
b1 *
#200
0$
#250
1$
#260
19
17
10
b1 -
01
b10 "
b10 ,
12
04
1.
b10 %
b1 &
b1 )
#300
0$
#350
1$
#360
1H
1G
1@
1C
1?
18
b111 -
1;
09
0A
b1000 "
b1000 ,
1<
1D
15
1=
b11 %
b111 &
b111 )
#400
0$
#450
1$
#460
0H
0G
0@
0C
1A
0?
08
0;
19
07
00
b0 -
11
b111 "
b111 ,
02
14
0.
05
0=
16
1>
b100 %
b0 &
b0 )
b111 '
b111 *
#500
0$
#550
1$
#560
1H
1?
1G
18
1@
1A
17
1:
0<
1B
0D
10
b111 -
15
1=
13
01
b1110 "
b1110 ,
b101 %
b110 &
b110 )
1#
1+
#600
0$
#650
1$
#660
0G
0!
03
11
1;
09
0@
b11 -
0J
1H
b1101 "
b1101 ,
12
04
0:
1<
0B
1K
1.
0=
06
0>
1F
b110 %
b11 &
b11 )
b1001 '
b1001 *
#700
0$
#750
1$
#760
1!
1J
0H
1G
1@
b111 -
1C
0A
b1 "
b1 ,
1D
1=
1E
0F
b111 %
b1111 &
b1111 )
b1 '
b1 *
#800
0$
#850
1$
#860
0!
0J
1H
0;
19
0C
1A
0K
1:
0<
1B
0D
0E
16
1>
01
b1110 "
b1110 ,
b1000 %
b111 &
b111 )
b111 '
b111 *
0#
0+
