00 - Basic Gates/Example.vcd
$date
	Tue Sep  3 09:04:15 2019
$end
$version
	Icarus Verilog
$end
$timescale
	1s
$end
$scope module tb_P2 $end
$var wire 1 ! d $end
$var wire 1 " e $end
$var reg 1 # a $end
$var reg 1 $ b $end
$var reg 1 % c $end
$upscope $end
$enddefinitions $end
#0
$dumpvars
0%
0$
0#
1"
1!
$end
#20
0!
0"
1%
#40
1!
1"
0%
1$
#60
0!
0"
1%
#80
1!
1"
0%
0$
1#
#100
0!
0"
1%
#120
1!
1"
0%
1$
#140
0"
1%
