02 - ALU/testalu.vcd
$date
	Tue Sep  3 09:40:54 2019
$end
$version
	Icarus Verilog
$end
$timescale
	100ps
$end
$scope module tb $end
$var wire 1 ! cout $end
$var wire 16 " o [15:0] $end
$var reg 1 # clk $end
$var integer 32 $ i [31:0] $end
$var reg 16 % i0 [15:0] $end
$var reg 16 & i1 [15:0] $end
$var reg 2 ' op [1:0] $end
$var reg 1 ( reset $end
$upscope $end
$enddefinitions $end
#0
$dumpvars
1(
b0 '
b0 &
b0 %
bx $
0#
b0 "
0!
$end
#50
1#
#60
b0 $
#100
0#
#125
0(
#150
1#
#160
b1 $
#200
0#
#250
1#
#260
b1111111111111111 "
b10 $
b1010101001010101 %
b101010110101010 &
#300
0#
#350
1#
#360
1!
b0 "
b11 $
b1111111111111111 %
b1 &
#400
0#
#450
1#
#460
b1000000000000000 "
0!
b100 $
b1 %
b111111111111111 &
#500
0#
#550
1#
#560
1!
b0 "
b101 $
b1 '
b0 %
b0 &
#600
0#
#650
1#
#660
b101010010101011 "
b110 $
b1010101001010101 %
b101010110101010 &
#700
0#
#750
1#
#760
b1111111111111110 "
b111 $
b1111111111111111 %
b1 &
#800
0#
#850
1#
#860
0!
b1000000000000010 "
b1000 $
b1 %
b111111111111111 &
#900
0#
#950
1#
#960
b0 "
b1001 $
b10 '
b0 %
b0 &
#1000
0#
#1050
1#
#1060
b1010 $
b1010101001010101 %
b101010110101010 &
#1100
0#
#1150
1#
#1160
1!
b1 "
b1011 $
b1111111111111111 %
b1 &
#1200
0#
#1250
1#
#1260
0!
b1100 $
b1 %
b111111111111111 &
#1300
0#
#1350
1#
#1360
1!
b0 "
b1101 $
b11 '
b0 %
b0 &
#1400
0#
#1450
1#
#1460
b1111111111111111 "
b1110 $
b1010101001010101 %
b101010110101010 &
#1500
0#
#1550
1#
#1560
b1111 $
b1111111111111111 %
b1 &
#1600
0#
#1650
1#
#1660
0!
b111111111111111 "
b10000 $
b1 %
b111111111111111 &
